<?xml version="1.0" encoding="UTF-8" standalone="no"?>
<!-- Created with Inkscape (http://www.inkscape.org/) -->

<svg
   xmlns:dc="http://purl.org/dc/elements/1.1/"
   xmlns:cc="http://creativecommons.org/ns#"
   xmlns:rdf="http://www.w3.org/1999/02/22-rdf-syntax-ns#"
   xmlns:svg="http://www.w3.org/2000/svg"
   xmlns="http://www.w3.org/2000/svg"
   xmlns:sodipodi="http://sodipodi.sourceforge.net/DTD/sodipodi-0.dtd"
   xmlns:inkscape="http://www.inkscape.org/namespaces/inkscape"
   width="297.91257mm"
   height="474.94333mm"
   viewBox="0 0 1055.5957 1682.8701"
   id="svg2"
   version="1.1"
   inkscape:version="0.91 r13725"
   sodipodi:docname="lasercuttlampe.svg">
  <defs
     id="defs4" />
  <sodipodi:namedview
     id="base"
     pagecolor="#ffffff"
     bordercolor="#666666"
     borderopacity="1.0"
     inkscape:pageopacity="0.0"
     inkscape:pageshadow="2"
     inkscape:zoom="0.35"
     inkscape:cx="219.80185"
     inkscape:cy="628.71221"
     inkscape:document-units="mm"
     inkscape:current-layer="layer1"
     showgrid="false"
     inkscape:window-width="1920"
     inkscape:window-height="1021"
     inkscape:window-x="0"
     inkscape:window-y="0"
     inkscape:window-maximized="1"
     fit-margin-top="0"
     fit-margin-left="0"
     fit-margin-right="0"
     fit-margin-bottom="0" />
  <metadata
     id="metadata7">
    <rdf:RDF>
      <cc:Work
         rdf:about="">
        <dc:format>image/svg+xml</dc:format>
        <dc:type
           rdf:resource="http://purl.org/dc/dcmitype/StillImage" />
        <dc:title></dc:title>
      </cc:Work>
    </rdf:RDF>
  </metadata>
  <g
     inkscape:label="Layer 1"
     inkscape:groupmode="layer"
     id="layer1"
     transform="translate(128.84154,-0.59975167)">
    <path
       style="color:#000000;font-style:normal;font-variant:normal;font-weight:normal;font-stretch:normal;font-size:medium;line-height:normal;font-family:sans-serif;text-indent:0;text-align:start;text-decoration:none;text-decoration-line:none;text-decoration-style:solid;text-decoration-color:#000000;letter-spacing:normal;word-spacing:normal;text-transform:none;direction:ltr;block-progression:tb;writing-mode:lr-tb;baseline-shift:baseline;text-anchor:start;white-space:normal;clip-rule:nonzero;display:inline;overflow:visible;visibility:visible;opacity:1;isolation:auto;mix-blend-mode:normal;color-interpolation:sRGB;color-interpolation-filters:linearRGB;solid-color:#000000;solid-opacity:1;fill:none;fill-opacity:1;fill-rule:nonzero;stroke:#000000;stroke-width:0.001;stroke-linecap:square;stroke-linejoin:miter;stroke-miterlimit:4;stroke-dasharray:none;stroke-dashoffset:0;stroke-opacity:1;color-rendering:auto;image-rendering:auto;shape-rendering:auto;text-rendering:auto;enable-background:accumulate"
       d="m 406.06274,628.24332 0,35.3164 -14.1738,0 0,-35.3086 c -134.9527,1.8539 -264.11,55.375 -360.818396,149.5254 l 25.0957,25.0957 -10.0214,10.0234 -25.0958,-25.0976 c -94.1458,96.71069 -147.663754,225.86838 -149.513624,360.82028 l 35.296924,0 0,14.1719 -35.300834,0 c 1.77356,135.074 55.310434,264.366 149.542934,361.1523 l 25.0704,-25.0723 10.0214,10.0215 -25.0703,25.0723 c 96.705596,94.135 225.852296,147.6444 360.792996,149.498 l 0,-35.6133 14.1738,0 0,35.6211 c 135.0673,-1.7701 264.3521,-55.2991 361.1387,-149.5195 l -25.0586,-25.0586 10.0215,-10.0215 25.0586,25.0586 c 94.2248,-96.785 147.7579,-226.0702 149.5312,-361.1386 l -35.6328,0 0,-14.1719 35.6289,0 c -1.8498,-134.9459 -55.3638,-264.09729 -149.5019,-360.80668 l -25.084,25.084 -10.0215,-10.0234 25.084,-25.082 c -96.7896,-94.2364 -226.0844,-147.7768 -361.1641,-149.5469 z m -6.9199,61.5703 c 123.6141,0 242.1327,49.0936 329.541,136.50189 87.4084,87.4084 136.502,205.92699 136.502,329.54109 0,123.614 -49.0936,242.1346 -136.502,329.5429 -87.4083,87.4084 -205.9269,136.5 -329.541,136.5 -123.6141,0 -242.1346,-49.0916 -329.542996,-136.5 -87.4083,-87.4083 -136.5,-205.9289 -136.5,-329.5429 0,-123.6141 49.0917,-242.13269 136.5,-329.54109 C 157.00824,738.90722 275.52874,689.81362 399.14284,689.81362 Z"
       id="path4437"
       inkscape:connector-curvature="0" />
    <path
       style="color:#000000;font-style:normal;font-variant:normal;font-weight:normal;font-stretch:normal;font-size:medium;line-height:normal;font-family:sans-serif;text-indent:0;text-align:start;text-decoration:none;text-decoration-line:none;text-decoration-style:solid;text-decoration-color:#000000;letter-spacing:normal;word-spacing:normal;text-transform:none;direction:ltr;block-progression:tb;writing-mode:lr-tb;baseline-shift:baseline;text-anchor:start;white-space:normal;clip-rule:nonzero;display:inline;overflow:visible;visibility:visible;opacity:1;isolation:auto;mix-blend-mode:normal;color-interpolation:sRGB;color-interpolation-filters:linearRGB;solid-color:#000000;solid-opacity:1;fill:none;fill-opacity:1;fill-rule:nonzero;stroke:#000000;stroke-width:0.001;stroke-linecap:square;stroke-linejoin:miter;stroke-miterlimit:4;stroke-dasharray:none;stroke-dashoffset:0;stroke-opacity:1;color-rendering:auto;image-rendering:auto;shape-rendering:auto;text-rendering:auto;enable-background:accumulate"
       d="m 406.13027,691.96011 0,38.1797 -14.1739,0 0,-38.1758 c -118.0981,1.8284 -231.1012,48.6575 -315.875005,130.9063 l 26.947305,26.9472 -10.021505,10.0215 -26.9473,-26.9453 c -82.21118,84.7861 -129.00908,197.78629 -130.81258,315.87319 l 38.0821,0 0,14.1737 -38.0821,0 c 1.8019,118.0877 48.5997,231.0878 130.81068,315.8749 l 26.9492,-26.9473 10.021505,10.0215 -26.949205,26.9512 c 84.773905,82.2495 197.778205,129.0798 315.876905,130.9082 l 0,-38.1817 14.1739,0 0,38.1856 c 118.1251,-1.7776 231.1636,-48.5783 315.9746,-130.8145 l -27.0469,-27.0488 10.0215,-10.0215 27.0507,27.0508 c 82.27239,-84.7984 129.1056,-197.8433 130.90819,-315.9784 l -38.2812,0 0,-14.1737 38.2812,0 C 861.23427,1030.6325 814.39897,917.58961 732.12627,832.79221 l -27.0468,27.0468 -10.0215,-10.0215 27.0449,-27.0449 c -84.8107,-82.235 -197.8484,-129.0349 -315.9726,-130.8125 z m -6.9864,75.4492 c 103.0372,0 201.8156,40.9152 274.6738,113.7735 72.8583,72.8583 113.7735,171.63669 113.7735,274.67379 0,103.0371 -40.9152,201.8155 -113.7735,274.6737 -72.8581,72.8583 -171.6366,113.7735 -274.6738,113.7735 -103.0371,0 -201.8155,-40.9152 -274.6738,-113.7735 -72.858405,-72.8582 -113.775485,-171.6366 -113.775485,-274.6737 0,-103.0371 40.91708,-201.81549 113.775485,-274.67379 72.8583,-72.8583 171.6367,-113.7735 274.6738,-113.7735 z"
       id="path4330"
       inkscape:connector-curvature="0" />
    <g
       id="g4485"
       transform="translate(-1158.1658,1120.7472)"
       style="fill:none;stroke:#000000;stroke-opacity:1;stroke-width:0.001;stroke-miterlimit:4;stroke-dasharray:none">
      <path
         id="path4164"
         d="m 1550.9062,-168.625 c -50.9354,1.57933 -97.4006,21.93699 -132.5566,54.32031 l 28.9883,28.988284 -9.4766,9.478515 -29.0742,-29.074219 c -33.2912,34.902758 -54.4017,81.42109 -56.2598,132.642579 l 42.4336,0 0,13.404297 -42.4863,0 c 1.521,51.417106 22.4457,98.169924 55.6504,133.302734 l 29.7363,-29.73633 9.4766,9.47852 -29.6953,29.69531 c 35.2401,32.76004 81.9882,53.37891 133.2636,54.96875 l 0,-41.76367 13.4043,0 0,41.74023 c 51.1895,-1.73739 97.834,-22.43812 132.9727,-55.23633 l -29.4043,-29.40429 9.4766,-9.47657 29.4257,29.42383 c 33.0369,-35.0969 53.8448,-81.725416 55.3614,-132.992184 l -41.8867,0 0,-13.404297 41.8339,0 c -1.8525,-51.070798 -22.8461,-97.464753 -55.9687,-132.332029 l -28.7656,28.763669 -9.4766,-9.478515 28.6992,-28.699214 c -35.0549,-32.42088 -81.4184,-52.86006 -132.2676,-54.58594 l 0,40.38672 -13.4043,0 0,-40.41016 z"
         style="color:#000000;font-style:normal;font-variant:normal;font-weight:normal;font-stretch:normal;font-size:medium;line-height:normal;font-family:sans-serif;text-indent:0;text-align:start;text-decoration:none;text-decoration-line:none;text-decoration-style:solid;text-decoration-color:#000000;letter-spacing:normal;word-spacing:normal;text-transform:none;direction:ltr;block-progression:tb;writing-mode:lr-tb;baseline-shift:baseline;text-anchor:start;white-space:normal;clip-rule:nonzero;display:inline;overflow:visible;visibility:visible;opacity:1;isolation:auto;mix-blend-mode:normal;color-interpolation:sRGB;color-interpolation-filters:linearRGB;solid-color:#000000;solid-opacity:1;fill:none;fill-opacity:1;fill-rule:nonzero;stroke:#000000;stroke-width:0.001;stroke-linecap:square;stroke-linejoin:miter;stroke-miterlimit:4;stroke-dasharray:none;stroke-dashoffset:0;stroke-opacity:1;color-rendering:auto;image-rendering:auto;shape-rendering:auto;text-rendering:auto;enable-background:accumulate"
         inkscape:connector-curvature="0" />
      <circle
         cy="35.109375"
         cx="1557.3086"
         id="path4165"
         style="fill:none;fill-opacity:1;stroke:#000000;stroke-width:0.001;stroke-linecap:square;stroke-miterlimit:4;stroke-dasharray:none;stroke-dashoffset:0;stroke-opacity:1"
         r="70.866142" />
    </g>
    <path
       style="color:#000000;font-style:normal;font-variant:normal;font-weight:normal;font-stretch:normal;font-size:medium;line-height:normal;font-family:sans-serif;text-indent:0;text-align:start;text-decoration:none;text-decoration-line:none;text-decoration-style:solid;text-decoration-color:#000000;letter-spacing:normal;word-spacing:normal;text-transform:none;direction:ltr;block-progression:tb;writing-mode:lr-tb;baseline-shift:baseline;text-anchor:start;white-space:normal;clip-rule:nonzero;display:inline;overflow:visible;visibility:visible;opacity:1;isolation:auto;mix-blend-mode:normal;color-interpolation:sRGB;color-interpolation-filters:linearRGB;solid-color:#000000;solid-opacity:1;fill:none;fill-opacity:1;fill-rule:nonzero;stroke:#000000;stroke-width:0.001;stroke-linecap:square;stroke-linejoin:miter;stroke-miterlimit:4;stroke-dasharray:none;stroke-dashoffset:0;stroke-opacity:1;color-rendering:auto;image-rendering:auto;shape-rendering:auto;text-rendering:auto;enable-background:accumulate"
       d="m 390.68872,872.27644 c -71.8562,2.1178 -137.1073,31.12 -186.0293,77.2696 l 19.6035,19.6054 -12.1426,12.1426 -19.6015,-19.6016 c -46.0336,48.96016 -74.9327,114.20496 -76.9688,186.02546 l 27.6348,0 0,17.1739 -27.5996,0 c 2.2586,71.6921 31.2892,136.7733 77.3828,185.5781 l 19.1523,-19.1543 12.1426,12.1426 -19.1348,19.1367 c 48.8689,45.8933 113.9306,74.7318 185.5606,76.8418 l 0,-27.043 17.1719,0 0,27.0332 c 71.5919,-2.1756 136.6073,-31.0503 185.4316,-76.9609 l -19.0078,-19.0078 12.1445,-12.1426 19.0156,19.0176 c 46.0196,-48.7892 74.9993,-113.8159 77.2559,-185.4414 l -27.3379,0 0,-17.1739 27.3731,0 c -2.0342,-71.7546 -30.8815,-136.9456 -76.8418,-185.89066 l -19.4649,19.4668 -12.1445,-12.1426 19.4765,-19.4765 c -48.8769,-46.167 -114.0827,-75.2051 -185.9003,-77.3887 l 0,27.9297 -17.1719,0 0,-27.9395 z m 8.4531,54.3828 c 126.904,0 229.1953,102.29146 229.1953,229.19556 0,126.904 -102.2913,229.1952 -229.1953,229.1952 -126.904,0 -229.1953,-102.2912 -229.1953,-229.1952 0,-126.9041 102.2913,-229.19556 229.1953,-229.19556 z"
       id="path4422"
       inkscape:connector-curvature="0" />
    <path
       style="color:#000000;font-style:normal;font-variant:normal;font-weight:normal;font-stretch:normal;font-size:medium;line-height:normal;font-family:sans-serif;text-indent:0;text-align:start;text-decoration:none;text-decoration-line:none;text-decoration-style:solid;text-decoration-color:#000000;letter-spacing:normal;word-spacing:normal;text-transform:none;direction:ltr;block-progression:tb;writing-mode:lr-tb;baseline-shift:baseline;text-anchor:start;white-space:normal;clip-rule:nonzero;display:inline;overflow:visible;visibility:visible;opacity:1;isolation:auto;mix-blend-mode:normal;color-interpolation:sRGB;color-interpolation-filters:linearRGB;solid-color:#000000;solid-opacity:1;fill:none;fill-opacity:1;fill-rule:evenodd;stroke:#000000;stroke-width:0.001;stroke-linecap:butt;stroke-linejoin:miter;stroke-miterlimit:4;stroke-dasharray:none;stroke-dashoffset:0;stroke-opacity:1;color-rendering:auto;image-rendering:auto;shape-rendering:auto;text-rendering:auto;enable-background:accumulate"
       d="m -671.80371,139.61066 0,0.75196 -145.4356,129.27734 0,278.55274 68.0293,67.19922 0.4649,38.66796 c -218.57713,161.80194 -295.33299,318.19356 -311.45709,547.33782 l 56.4863,-0.059 c 0.9569,-6.4371 1.9467,-12.7462 2.9512,-18.998 l -22.5957,0 0,-14.1738 24.94143,0 c 15.42166,-90.5123 36.23212,-161.4177 64.39453,-220.96876 l -24.66602,0 0,-14.1738 31.62891,0 c 58.11805,-114.35481 145.67224,-186.82062 277.99214,-281.26328 l -0.1816,-10.8086 -47.127,0 0,-13.60742 46.8985,0 -0.2715,-16.18359 -119.3574,-99.65625 1.3222,-204.94336 -20.3125,0 0,-17.17383 19.9297,0 116.6446,-100.63281 -0.07,-0.17383 70.7135,0 19.28573,-48.97071 z"
       id="path4136"
       inkscape:connector-curvature="0"
       sodipodi:nodetypes="cccccccccccccccccccccccccccccccc" />
    <path
       sodipodi:nodetypes="cccccccccccccccccccccccccccccccc"
       inkscape:connector-curvature="0"
       id="path4146"
       d="m -530.37514,156.75352 0,0.75196 -145.4356,129.27734 0,278.55274 68.0293,67.19922 0.4649,38.66796 C -825.89367,833.00468 -902.64953,989.3963 -918.77363,1218.5406 l 56.4863,-0.059 c 0.9569,-6.4371 1.9467,-12.7462 2.9512,-18.998 l -22.5957,0 0,-14.1738 24.94143,0 c 15.42166,-90.5123 36.23212,-161.4177 64.39453,-220.9688 l -24.66602,0 0,-14.1738 31.62891,0 c 58.11805,-114.35481 145.67224,-186.82062 277.99214,-281.26328 l -0.1816,-10.8086 -47.127,0 0,-13.60742 46.8985,0 -0.2715,-16.18359 -119.3574,-99.65625 1.3222,-204.94336 -20.3125,0 0,-17.17383 19.9297,0 116.6446,-100.63281 -0.07,-0.17383 70.7135,0 19.28573,-48.97071 z"
       style="color:#000000;font-style:normal;font-variant:normal;font-weight:normal;font-stretch:normal;font-size:medium;line-height:normal;font-family:sans-serif;text-indent:0;text-align:start;text-decoration:none;text-decoration-line:none;text-decoration-style:solid;text-decoration-color:#000000;letter-spacing:normal;word-spacing:normal;text-transform:none;direction:ltr;block-progression:tb;writing-mode:lr-tb;baseline-shift:baseline;text-anchor:start;white-space:normal;clip-rule:nonzero;display:inline;overflow:visible;visibility:visible;opacity:1;isolation:auto;mix-blend-mode:normal;color-interpolation:sRGB;color-interpolation-filters:linearRGB;solid-color:#000000;solid-opacity:1;fill:none;fill-opacity:1;fill-rule:evenodd;stroke:#000000;stroke-width:0.001;stroke-linecap:butt;stroke-linejoin:miter;stroke-miterlimit:4;stroke-dasharray:none;stroke-dashoffset:0;stroke-opacity:1;color-rendering:auto;image-rendering:auto;shape-rendering:auto;text-rendering:auto;enable-background:accumulate" />
    <path
       style="color:#000000;font-style:normal;font-variant:normal;font-weight:normal;font-stretch:normal;font-size:medium;line-height:normal;font-family:sans-serif;text-indent:0;text-align:start;text-decoration:none;text-decoration-line:none;text-decoration-style:solid;text-decoration-color:#000000;letter-spacing:normal;word-spacing:normal;text-transform:none;direction:ltr;block-progression:tb;writing-mode:lr-tb;baseline-shift:baseline;text-anchor:start;white-space:normal;clip-rule:nonzero;display:inline;overflow:visible;visibility:visible;opacity:1;isolation:auto;mix-blend-mode:normal;color-interpolation:sRGB;color-interpolation-filters:linearRGB;solid-color:#000000;solid-opacity:1;fill:none;fill-opacity:1;fill-rule:evenodd;stroke:#000000;stroke-width:0.001;stroke-linecap:butt;stroke-linejoin:miter;stroke-miterlimit:4;stroke-dasharray:none;stroke-dashoffset:0;stroke-opacity:1;color-rendering:auto;image-rendering:auto;shape-rendering:auto;text-rendering:auto;enable-background:accumulate"
       d="m -398.37514,178.75352 0,0.75196 -145.4356,129.27734 0,278.55274 68.0293,67.19922 0.4649,38.66796 c -218.57713,161.80194 -295.33299,318.19356 -311.45709,547.33786 l 56.4863,-0.059 c 0.9569,-6.4371 1.9467,-12.7462 2.9512,-18.998 l -22.5957,0 0,-14.1738 24.94143,0 c 15.42166,-90.5123 36.23212,-161.4177 64.39453,-220.9688 l -24.66602,0 0,-14.1738 31.62891,0 c 58.11805,-114.35481 145.67224,-186.82062 277.99214,-281.26328 l -0.1816,-10.8086 -47.127,0 0,-13.60742 46.8985,0 -0.2715,-16.18359 -119.3574,-99.65625 1.3222,-204.94336 -20.3125,0 0,-17.17383 19.9297,0 116.6446,-100.63281 -0.07,-0.17383 70.7135,0 19.28573,-48.97071 z"
       id="path4148"
       inkscape:connector-curvature="0"
       sodipodi:nodetypes="cccccccccccccccccccccccccccccccc" />
    <path
       sodipodi:nodetypes="cccccccccccccccccccccccccccccccc"
       inkscape:connector-curvature="0"
       id="path4150"
       d="m -1085.8037,79.61066 0,0.75196 -145.4356,129.27734 0,278.55274 68.0293,67.19922 0.4649,38.66796 c -218.5771,161.80194 -295.333,318.19356 -311.4571,547.33782 l 56.4863,-0.059 c 0.9569,-6.4371 1.9467,-12.7462 2.9512,-18.998 l -22.5957,0 0,-14.1738 24.9414,0 c 15.4217,-90.5123 36.2321,-161.4177 64.3946,-220.96876 l -24.6661,0 0,-14.1738 31.6289,0 c 58.1181,-114.35481 145.6723,-186.82062 277.9922,-281.26328 l -0.1816,-10.8086 -47.127,0 0,-13.60742 46.8985,0 -0.2715,-16.18359 -119.3574,-99.65625 1.3222,-204.94336 -20.3125,0 0,-17.17383 19.9297,0 116.6446,-100.63281 -0.07,-0.17383 70.7135,0 19.28572,-48.97071 z"
       style="color:#000000;font-style:normal;font-variant:normal;font-weight:normal;font-stretch:normal;font-size:medium;line-height:normal;font-family:sans-serif;text-indent:0;text-align:start;text-decoration:none;text-decoration-line:none;text-decoration-style:solid;text-decoration-color:#000000;letter-spacing:normal;word-spacing:normal;text-transform:none;direction:ltr;block-progression:tb;writing-mode:lr-tb;baseline-shift:baseline;text-anchor:start;white-space:normal;clip-rule:nonzero;display:inline;overflow:visible;visibility:visible;opacity:1;isolation:auto;mix-blend-mode:normal;color-interpolation:sRGB;color-interpolation-filters:linearRGB;solid-color:#000000;solid-opacity:1;fill:none;fill-opacity:1;fill-rule:evenodd;stroke:#000000;stroke-width:0.001;stroke-linecap:butt;stroke-linejoin:miter;stroke-miterlimit:4;stroke-dasharray:none;stroke-dashoffset:0;stroke-opacity:1;color-rendering:auto;image-rendering:auto;shape-rendering:auto;text-rendering:auto;enable-background:accumulate" />
    <path
       style="color:#000000;font-style:normal;font-variant:normal;font-weight:normal;font-stretch:normal;font-size:medium;line-height:normal;font-family:sans-serif;text-indent:0;text-align:start;text-decoration:none;text-decoration-line:none;text-decoration-style:solid;text-decoration-color:#000000;letter-spacing:normal;word-spacing:normal;text-transform:none;direction:ltr;block-progression:tb;writing-mode:lr-tb;baseline-shift:baseline;text-anchor:start;white-space:normal;clip-rule:nonzero;display:inline;overflow:visible;visibility:visible;opacity:1;isolation:auto;mix-blend-mode:normal;color-interpolation:sRGB;color-interpolation-filters:linearRGB;solid-color:#000000;solid-opacity:1;fill:none;fill-opacity:1;fill-rule:evenodd;stroke:#000000;stroke-width:0.001;stroke-linecap:butt;stroke-linejoin:miter;stroke-miterlimit:4;stroke-dasharray:none;stroke-dashoffset:0;stroke-opacity:1;color-rendering:auto;image-rendering:auto;shape-rendering:auto;text-rendering:auto;enable-background:accumulate"
       d="m -944.37514,96.75352 0,0.75196 -145.43556,129.27734 0,278.55274 68.0293,67.19922 0.4649,38.66796 c -218.5772,161.80194 -295.333,318.19356 -311.4571,547.33786 l 56.4863,-0.059 c 0.9569,-6.4371 1.9467,-12.7462 2.9512,-18.998 l -22.5957,0 0,-14.1738 24.9414,0 c 15.4217,-90.5123 36.2321,-161.4177 64.3945,-220.9688 l -24.666,0 0,-14.1738 31.6289,0 c 58.1181,-114.35481 145.6723,-186.82062 277.99216,-281.26328 l -0.1816,-10.8086 -47.127,0 0,-13.60742 46.8985,0 -0.2715,-16.18359 -119.35736,-99.65625 1.3222,-204.94336 -20.3125,0 0,-17.17383 19.9297,0 116.64456,-100.63281 -0.07,-0.17383 70.7135,0 19.28573,-48.97071 z"
       id="path4152"
       inkscape:connector-curvature="0"
       sodipodi:nodetypes="cccccccccccccccccccccccccccccccc" />
    <path
       sodipodi:nodetypes="cccccccccccccccccccccccccccccccc"
       inkscape:connector-curvature="0"
       id="path4154"
       d="m -812.37514,118.75352 0,0.75196 -145.4356,129.27734 0,278.55274 68.0293,67.19922 0.4649,38.66796 C -1107.8937,795.00468 -1184.6495,951.3963 -1200.7736,1180.5406 l 56.4863,-0.059 c 0.9569,-6.4371 1.9467,-12.7462 2.9512,-18.998 l -22.5957,0 0,-14.1738 24.9414,0 c 15.4217,-90.5123 36.2321,-161.4177 64.3945,-220.9688 l -24.666,0 0,-14.1738 31.6289,0 c 58.1181,-114.35481 145.67226,-186.82062 277.99216,-281.26328 l -0.1816,-10.8086 -47.127,0 0,-13.60742 46.8985,0 -0.2715,-16.18359 -119.3574,-99.65625 1.3222,-204.94336 -20.3125,0 0,-17.17383 19.9297,0 116.6446,-100.63281 -0.07,-0.17383 70.7135,0 19.28573,-48.97071 z"
       style="color:#000000;font-style:normal;font-variant:normal;font-weight:normal;font-stretch:normal;font-size:medium;line-height:normal;font-family:sans-serif;text-indent:0;text-align:start;text-decoration:none;text-decoration-line:none;text-decoration-style:solid;text-decoration-color:#000000;letter-spacing:normal;word-spacing:normal;text-transform:none;direction:ltr;block-progression:tb;writing-mode:lr-tb;baseline-shift:baseline;text-anchor:start;white-space:normal;clip-rule:nonzero;display:inline;overflow:visible;visibility:visible;opacity:1;isolation:auto;mix-blend-mode:normal;color-interpolation:sRGB;color-interpolation-filters:linearRGB;solid-color:#000000;solid-opacity:1;fill:none;fill-opacity:1;fill-rule:evenodd;stroke:#000000;stroke-width:0.001;stroke-linecap:butt;stroke-linejoin:miter;stroke-miterlimit:4;stroke-dasharray:none;stroke-dashoffset:0;stroke-opacity:1;color-rendering:auto;image-rendering:auto;shape-rendering:auto;text-rendering:auto;enable-background:accumulate" />
    <path
       style="color:#000000;font-style:normal;font-variant:normal;font-weight:normal;font-stretch:normal;font-size:medium;line-height:normal;font-family:sans-serif;text-indent:0;text-align:start;text-decoration:none;text-decoration-line:none;text-decoration-style:solid;text-decoration-color:#000000;letter-spacing:normal;word-spacing:normal;text-transform:none;direction:ltr;block-progression:tb;writing-mode:lr-tb;baseline-shift:baseline;text-anchor:start;white-space:normal;clip-rule:nonzero;display:inline;overflow:visible;visibility:visible;opacity:1;isolation:auto;mix-blend-mode:normal;color-interpolation:sRGB;color-interpolation-filters:linearRGB;solid-color:#000000;solid-opacity:1;fill:none;fill-opacity:1;fill-rule:evenodd;stroke:#000000;stroke-width:0.001;stroke-linecap:butt;stroke-linejoin:miter;stroke-miterlimit:4;stroke-dasharray:none;stroke-dashoffset:0;stroke-opacity:1;color-rendering:auto;image-rendering:auto;shape-rendering:auto;text-rendering:auto;enable-background:accumulate"
       d="m -264.37514,198.75352 0,0.75196 -145.4356,129.27734 0,278.55274 68.0293,67.19922 0.4649,38.66796 c -218.57713,161.80194 -295.33299,318.19356 -311.45709,547.33786 l 56.4863,-0.059 c 0.9569,-6.4371 1.9467,-12.7462 2.9512,-18.998 l -22.5957,0 0,-14.1738 24.94143,0 c 15.42166,-90.5123 36.23212,-161.4177 64.39453,-220.9688 l -24.66602,0 0,-14.1738 31.62891,0 c 58.11805,-114.35481 145.67224,-186.82062 277.99214,-281.26328 l -0.1816,-10.8086 -47.127,0 0,-13.60742 46.8985,0 -0.2715,-16.18359 -119.3574,-99.65625 1.3222,-204.94336 -20.3125,0 0,-17.17383 19.9297,0 116.6446,-100.63281 -0.07,-0.17383 70.7135,0 19.28573,-48.97071 z"
       id="path4156"
       inkscape:connector-curvature="0"
       sodipodi:nodetypes="cccccccccccccccccccccccccccccccc" />
    <path
       sodipodi:nodetypes="cccccccccccccccccccccccccccccccc"
       inkscape:connector-curvature="0"
       id="path4158"
       d="m -132.37514,220.75352 0,0.75196 -145.4356,129.27734 0,278.55274 68.0293,67.19922 0.4649,38.66796 c -218.57713,161.80194 -295.33299,318.19356 -311.45709,547.33786 l 56.4863,-0.059 c 0.9569,-6.4371 1.9467,-12.7462 2.9512,-18.998 l -22.5957,0 0,-14.1738 24.94143,0 c 15.42166,-90.5123 36.23212,-161.4177 64.39453,-220.9688 l -24.66602,0 0,-14.1738 31.62891,0 c 58.11805,-114.35481 145.67224,-186.82062 277.99214,-281.26328 l -0.1816,-10.8086 -47.127,0 0,-13.60742 46.8985,0 -0.2715,-16.18359 -119.3574,-99.65625 1.3222,-204.94336 -20.3125,0 0,-17.17383 19.9297,0 116.6446,-100.63281 -0.07,-0.17383 70.7135,0 19.28573,-48.97071 z"
       style="color:#000000;font-style:normal;font-variant:normal;font-weight:normal;font-stretch:normal;font-size:medium;line-height:normal;font-family:sans-serif;text-indent:0;text-align:start;text-decoration:none;text-decoration-line:none;text-decoration-style:solid;text-decoration-color:#000000;letter-spacing:normal;word-spacing:normal;text-transform:none;direction:ltr;block-progression:tb;writing-mode:lr-tb;baseline-shift:baseline;text-anchor:start;white-space:normal;clip-rule:nonzero;display:inline;overflow:visible;visibility:visible;opacity:1;isolation:auto;mix-blend-mode:normal;color-interpolation:sRGB;color-interpolation-filters:linearRGB;solid-color:#000000;solid-opacity:1;fill:none;fill-opacity:1;fill-rule:evenodd;stroke:#000000;stroke-width:0.001;stroke-linecap:butt;stroke-linejoin:miter;stroke-miterlimit:4;stroke-dasharray:none;stroke-dashoffset:0;stroke-opacity:1;color-rendering:auto;image-rendering:auto;shape-rendering:auto;text-rendering:auto;enable-background:accumulate" />
  </g>
</svg>
